{
  "project_info": {
    "project_number": "382082710892",
    "firebase_url": "https://login-facebook-d4b38.firebaseio.com",
    "project_id": "login-facebook-d4b38",
    "storage_bucket": "login-facebook-d4b38.appspot.com"
  },
  "client": [
    {
      "client_info": {
        "mobilesdk_app_id": "1:382082710892:android:53adfbb73b3438fd",
        "android_client_info": {
          "package_name": "com.example.irvan.loginfacebook"
        }
      },
      "oauth_client": [
        {
          "client_id": "382082710892-1q2n0l9mpaa8v29p5h4fosd6p2o90dbb.apps.googleusercontent.com",
          "client_type": 1,
          "android_info": {
            "package_name": "com.example.irvan.loginfacebook",
            "certificate_hash": "0FC38E799E71A86071F6185D69C21A4D77B3D402"
          }
        },
        {
          "client_id": "382082710892-6at4gr5afljr12s4ibsvamfjta1ogn7j.apps.googleusercontent.com",
          "client_type": 3
        }
      ],
      "api_key": [
        {
          "current_key": "AIzaSyAyyL-N1WPflBAJ4Ujq5K6l7SDf8tWGm-U"
        }
      ],
      "services": {
        "analytics_service": {
          "status": 1
        },
        "appinvite_service": {
          "status": 2,
          "other_platform_oauth_client": [
            {
              "client_id": "382082710892-6at4gr5afljr12s4ibsvamfjta1ogn7j.apps.googleusercontent.com",
              "client_type": 3
            }
          ]
        },
        "ads_service": {
          "status": 2
        }
      }
    }
  ],
  "configuration_version": "1"
}